{
    "Version": "2012-10-17",
    "Statement": [
        {
            "Sid": "TerraformRequiredPermissions",
            "Effect": "Allow",
            "Action": [
                "ecr:GetAuthorizationToken",
                "ecr:BatchCheckLayerAvailability",
                "ec2:*",
                "elasticloadbalancing:*",
                "rds:DeleteDBSubnetGroup",
                "rds:CreateDBInstance",
                "rds:CreateDBSubnetGroup",
                "rds:DeleteDBInstance",
                "rds:DescribeDBSubnetGroups",
                "rds:DescribeDBInstances",
                "rds:ListTagsForResource",
                "rds:ModifyDBInstance",
                "iam:CreateServiceLinkedRole",
                "rds:AddTagsToResource",
                "iam:CreateRole",
                "iam:GetInstanceProfile",
                "iam:DeletePolicy",
                "iam:DetachRolePolicy",
                "iam:GetRole",
                "iam:AddRoleToInstanceProfile",
                "iam:ListInstanceProfilesForRole",
                "iam:ListAttachedRolePolicies",
                "iam:DeleteRole",
                "iam:TagRole",
                "iam:PassRole",
                "iam:GetPolicyVersion",
                "iam:GetPolicy",
                "iam:ListRolePolicies",
                "iam:CreatePolicyVersion",
                "iam:DeletePolicyVersion",
                "iam:CreateInstanceProfile",
                "iam:DeleteInstanceProfile",
                "iam:ListPolicyVersions",
                "iam:AttachRolePolicy",
                "iam:CreatePolicy",
                "iam:RemoveRoleFromInstanceProfile",
                "logs:CreateLogGroup",
                "logs:DeleteLogGroup",
                "logs:DescribeLogGroups",
                "logs:ListTagsLogGroup",
                "logs:TagLogGroup",
                "ecs:DeleteCluster",
                "ecs:CreateService",
                "ecs:UpdateService",
                "ecs:DeregisterTaskDefinition",
                "ecs:DescribeClusters",
                "ecs:RegisterTaskDefinition",
                "ecs:DeleteService",
                "ecs:DescribeTaskDefinition",
                "ecs:DescribeServices",
                "ecs:CreateCluster",
                "ssm:GetParameters",
                "ssm:GetParameter",
                "ssm:DeleteParameter",
                "ssm:DeleteParameters",
                "ssm:DescribeParameters",
                "ssm:PutParameter",
                "ssm:ListTagsForResource"
            ],
            "Resource": "*"
        },
        {
          "Sid": "AllowListS3StateBucket",
          "Effect": "Allow",
          "Action": "s3:ListBucket",
          "Resource": "arn:aws:s3:::gitlab-cicd-tf-backend-bucket*"
        },
        {
          "Sid": "AllowS3StateBucketAccess",
          "Effect": "Allow",
          "Action": ["s3:GetObject", "s3:PutObject"],
          "Resource": "arn:aws:s3:::gitlab-cicd-tf-backend-bucket*/*"
        },
        {
            "Sid": "LimitEC2Size",
            "Effect": "Deny",
            "Action": "ec2:RunInstances",
            "Resource": "arn:aws:ec2:*:*:instance/*",
            "Condition": {
                "ForAnyValue:StringNotLike": {
                    "ec2:InstanceType": [
                        "t2.medium"
                    ]
                }
            }
        },
        {
            "Sid": "AllowECRAccess",
            "Effect": "Allow",
            "Action": [
                "ecr:GetAuthorizationToken",
                "ecr:BatchCheckLayerAvailability",
                "ecr:GetDownloadUrlForLayer",
                "ecr:GetRepositoryPolicy",
                "ecr:DescribeRepositories",
                "ecr:ListImages",
                "ecr:DescribeImages",
                "ecr:BatchGetImage",
                "ecr:GetLifecyclePolicy",
                "ecr:GetLifecyclePolicyPreview",
                "ecr:ListTagsForResource",
                "ecr:DescribeImageScanFindings",
                "ecr:InitiateLayerUpload",
                "ecr:UploadLayerPart",
                "ecr:CompleteLayerUpload",
                "ecr:PutImage"
            ],
            "Resource": "arn:aws:ecr:us-east-1:*:repository/gitlab-cicd-ecr"
        },
        {
            "Sid": "AllowStateLockingAccess",
            "Effect": "Allow",
            "Action": [
                "dynamodb:PutItem",
                "dynamodb:DeleteItem",
                "dynamodb:GetItem"
            ],
            "Resource": [
                "arn:aws:dynamodb:*:*:table/tfstate-dynamodb-table"
            ]
        }
    ]
}
